%YAML 1.1
%TAG !u! tag:unity3d.com,2011:
--- !u!21 &2100000
Material:
  serializedVersion: 6
  m_ObjectHideFlags: 0
  m_PrefabParentObject: {fileID: 0}
  m_PrefabInternal: {fileID: 0}
  m_Name: VerticalGradientSkybox
  m_Shader: {fileID: 4800000, guid: cccfc3db116ef42dfbd4983ca2653196, type: 3}
  m_ShaderKeywords: 
  m_LightmapFlags: 5
  m_EnableInstancingVariants: 0
  m_DoubleSidedGI: 0
  m_CustomRenderQueue: 1000
  stringTagMap: {}
  disabledShaderPasses: []
  m_SavedProperties:
    serializedVersion: 3
    m_TexEnvs: []
    m_Floats:
    - _GradientBias: 0
    m_Colors:
    - _ColorHigh: {r: 0.97794116, g: 0.97794116, b: 0.97794116, a: 1}
    - _ColorLow: {r: 0.9254902, g: 0.91764706, b: 0.8980392, a: 1}
